{
    "threads/:thread/comments/:comment/votes": {
        "POST": {
            "title": "POST threads/:thread/comments/:comment/votes",
            "authentication": "HTTP basic required",
            "updated": "2013-12-09 12:00",
            "changelog": {
                "2013-12-09 12:00": "Mise en ligne de la documentation."
            },
            "short_description": "Evaluer un commentaire.",
            "description": "Evaluer positivement ou negativement un commentaire, et augmenter ou baisser son score de 1.",
            "warning": null,
            "links": [],
            "errors": {
                "invalid_configuration": {
                    "description": "L'application n'est pas identifiée correctement sur l'API.",
                    "links": [
                        {
                            "link": "@appendix_user_httpauth@"
                        }
                    ]
                },
                "unknown_error": {
                    "description": "Erreur non repertoriée, merci de signaler le problème et son contexte.",
                    "links" : null
                }
            },

            "url": "/api/threads/:thread/comments/:comment/votes",
            "parameters": {
                "thread": {
                    "required": true,
                    "description": "Identifiant du fil de commentaires dans lequel se trouve le commentaire que l'on veut évaluer.",
                    "links": null,
                    "type": "string",
                    "example": "le-nouveau-sac-de-toto"
                },
                "comment": {
                    "required": true,
                    "description": "Identifiant du commentaire que l'on veut évaluer.",
                    "links": null,
                    "type": "int",
                    "example": "23"
                },
                "la_comment_vote[value]": {
                    "required": true,
                    "description": "Valeur du vote. (1 ou -1)",
                    "links": null,
                    "type": "int",
                    "example": "1"
                },
                "la_comment_vote[user]": {
                    "required": true,
                    "description": "Identifiant de l'utilisateur qui évalue le contenu.",
                    "links": null,
                    "type": "int",
                    "example": "1760410"
                }
            },
            "example": {
                "request": "curl -v -x POST -u 'appid:apppassword' -H 'Content-type: application/x-www-form-urlencoded' -d 'la_comment_thread[value]=1&la_comment_thread[user]=1760410' http://profile.site.tld/api/threads/le-nouveau-sac-de-toto/comments/23/votes",
                "response": {
                    "comment": {
                        "id": 9,
                        "body": "pas mal ce sac",
                        "depth": 0,
                        "created_at": "2013-11-08T09:57:49+0100",
                        "state": 0,
                        "previous_state": 0,
                        "thread": {
                            "id": "le-nouveau-sac-de-toto",
                            "is_commentable": true,
                            "num_comments": 4,
                            "last_comment_at": "2013-11-20T17:07:24+0100",
                            "permalink": "http://www.toto.com/le-nouveau-sac-de-toto",
                            "rating": 0,
                            "rating_count": 0,
                            "rating_sum": 0
                        },
                        "user_id": "123",
                        "username": "jlouis",
                        "avatar": "/var/chemin-tres-secret/jlouis.jpg",
                        "email": "jl@lescommentaires.com",
                        "headers": "234.256.127.0",
                        "upvotes": 10,
                        "downvotes": 8,
                        "score": 2,
                        "rating": 0,
                        "ancestors": ""
                    },
                    "thread": {
                        "id": "le-nouveau-sac-de-toto",
                        "is_commentable": true,
                        "num_comments": 4,
                        "last_comment_at": "2013-11-20T17:07:24+0100",
                        "permalink": "http://www.toto.com",
                        "rating": 0,
                        "rating_count": 0,
                        "rating_sum": 0
                    }
                }
            }
        }
    }
}